EESchema Schematic File Version 4
EELAYER 30 0
EELAYER END
$Descr USLetter 11000 8500
encoding utf-8
Sheet 1 1
Title ""
Date ""
Rev ""
Comp ""
Comment1 ""
Comment2 ""
Comment3 ""
Comment4 ""
$EndDescr
$Comp
L MCU_Microchip_ATtiny:ATtiny4-TS U1
U 1 1 5E481811
P 5700 3600
F 0 "U1" H 5170 3646 50  0000 R CNN
F 1 "ATtiny4-TS" H 5170 3555 50  0000 R CNN
F 2 "Package_TO_SOT_SMD:SOT-23-6" H 5700 3600 50  0001 C CIN
F 3 "http://ww1.microchip.com/downloads/en/DeviceDoc/Atmel-8127-AVR-8-bit-Microcontroller-ATtiny4-ATtiny5-ATtiny9-ATtiny10_Datasheet.pdf" H 5700 3600 50  0001 C CNN
	1    5700 3600
	1    0    0    -1  
$EndComp
Text Label 5100 2150 0    50   ~ 0
TPIDATA
Text Label 5100 2250 0    50   ~ 0
TPICLK
Text Label 5100 2350 0    50   ~ 0
~RESET
Wire Wire Line
	5500 2150 5100 2150
Wire Wire Line
	5500 2250 5100 2250
Wire Wire Line
	5500 2350 5100 2350
NoConn ~ 6000 2250
Wire Wire Line
	6000 2350 6100 2350
Wire Wire Line
	6100 2350 6100 2450
$Comp
L power:GND #PWR0101
U 1 1 5E485005
P 6100 2450
F 0 "#PWR0101" H 6100 2200 50  0001 C CNN
F 1 "GND" H 6105 2277 50  0000 C CNN
F 2 "" H 6100 2450 50  0001 C CNN
F 3 "" H 6100 2450 50  0001 C CNN
	1    6100 2450
	1    0    0    -1  
$EndComp
Wire Wire Line
	6000 2150 6100 2150
Wire Wire Line
	6100 2150 6100 2050
$Comp
L power:+3.3V #PWR0102
U 1 1 5E485666
P 6100 2050
F 0 "#PWR0102" H 6100 1900 50  0001 C CNN
F 1 "+3.3V" H 6115 2223 50  0000 C CNN
F 2 "" H 6100 2050 50  0001 C CNN
F 3 "" H 6100 2050 50  0001 C CNN
	1    6100 2050
	1    0    0    -1  
$EndComp
$Comp
L Device:Battery_Cell BT1
U 1 1 5E48655D
P 4000 3600
F 0 "BT1" H 4118 3696 50  0000 L CNN
F 1 "CR1220" H 4118 3605 50  0000 L CNN
F 2 "Battery:BatteryHolder_Keystone_3001_1x12mm" V 4000 3660 50  0001 C CNN
F 3 "~" V 4000 3660 50  0001 C CNN
	1    4000 3600
	1    0    0    -1  
$EndComp
$Comp
L power:+3.3V #PWR0103
U 1 1 5E487008
P 4000 3300
F 0 "#PWR0103" H 4000 3150 50  0001 C CNN
F 1 "+3.3V" H 4015 3473 50  0000 C CNN
F 2 "" H 4000 3300 50  0001 C CNN
F 3 "" H 4000 3300 50  0001 C CNN
	1    4000 3300
	1    0    0    -1  
$EndComp
$Comp
L power:GND #PWR0104
U 1 1 5E48773B
P 4000 3800
F 0 "#PWR0104" H 4000 3550 50  0001 C CNN
F 1 "GND" H 4005 3627 50  0000 C CNN
F 2 "" H 4000 3800 50  0001 C CNN
F 3 "" H 4000 3800 50  0001 C CNN
	1    4000 3800
	1    0    0    -1  
$EndComp
$Comp
L Device:Speaker BZ1
U 1 1 5E48DDD0
P 7250 2900
F 0 "BZ1" H 7425 2896 50  0000 L CNN
F 1 "AI-1223-TWT-3V-2-R" H 7425 2805 50  0000 L CNN
F 2 "Buzzer_Beeper:Buzzer_12x9.5RM7.6" H 7215 2850 50  0001 C CNN
F 3 "~" H 7215 2850 50  0001 C CNN
	1    7250 2900
	1    0    0    -1  
$EndComp
Text Label 6050 2900 0    50   ~ 0
TPIDATA
Text Label 6700 3400 2    50   ~ 0
TPICLK
Wire Wire Line
	7050 3000 6950 3000
Wire Wire Line
	6950 3000 6950 3100
$Comp
L power:GND #PWR0105
U 1 1 5E49E815
P 6950 3100
F 0 "#PWR0105" H 6950 2850 50  0001 C CNN
F 1 "GND" H 6955 2927 50  0000 C CNN
F 2 "" H 6950 3100 50  0001 C CNN
F 3 "" H 6950 3100 50  0001 C CNN
	1    6950 3100
	1    0    0    -1  
$EndComp
Wire Wire Line
	6700 3300 6300 3300
Wire Wire Line
	6700 3400 6300 3400
Text Label 6700 3600 2    50   ~ 0
~RESET
Wire Wire Line
	6700 3600 6300 3600
$Comp
L power:+3.3V #PWR0108
U 1 1 5E4A4515
P 5700 3000
F 0 "#PWR0108" H 5700 2850 50  0001 C CNN
F 1 "+3.3V" H 5715 3173 50  0000 C CNN
F 2 "" H 5700 3000 50  0001 C CNN
F 3 "" H 5700 3000 50  0001 C CNN
	1    5700 3000
	1    0    0    -1  
$EndComp
$Comp
L power:GND #PWR0109
U 1 1 5E4A4C6B
P 5700 4200
F 0 "#PWR0109" H 5700 3950 50  0001 C CNN
F 1 "GND" H 5705 4027 50  0000 C CNN
F 2 "" H 5700 4200 50  0001 C CNN
F 3 "" H 5700 4200 50  0001 C CNN
	1    5700 4200
	1    0    0    -1  
$EndComp
$Comp
L Device:CP1 C1
U 1 1 5E4B2A67
P 3550 3550
F 0 "C1" H 3665 3596 50  0000 L CNN
F 1 "3.3u" H 3665 3505 50  0000 L CNN
F 2 "Capacitor_Tantalum_SMD:CP_EIA-3216-18_Kemet-A" H 3550 3550 50  0001 C CNN
F 3 "~" H 3550 3550 50  0001 C CNN
	1    3550 3550
	1    0    0    -1  
$EndComp
Wire Wire Line
	4000 3700 4000 3750
Wire Wire Line
	4000 3750 3550 3750
Wire Wire Line
	3550 3750 3550 3700
Connection ~ 4000 3750
Wire Wire Line
	4000 3750 4000 3800
Wire Wire Line
	3550 3400 3550 3350
Wire Wire Line
	3550 3350 4000 3350
Wire Wire Line
	4000 3350 4000 3300
Wire Wire Line
	4000 3350 4000 3400
Connection ~ 4000 3350
$Comp
L Device:C C2
U 1 1 5E4B5157
P 6400 4050
F 0 "C2" H 6515 4096 50  0000 L CNN
F 1 "100n" H 6515 4005 50  0000 L CNN
F 2 "Capacitor_SMD:C_0805_2012Metric" H 6438 3900 50  0001 C CNN
F 3 "~" H 6400 4050 50  0001 C CNN
	1    6400 4050
	1    0    0    -1  
$EndComp
$Comp
L power:+3.3V #PWR0110
U 1 1 5E4B5D46
P 6400 3900
F 0 "#PWR0110" H 6400 3750 50  0001 C CNN
F 1 "+3.3V" H 6415 4073 50  0000 C CNN
F 2 "" H 6400 3900 50  0001 C CNN
F 3 "" H 6400 3900 50  0001 C CNN
	1    6400 3900
	1    0    0    -1  
$EndComp
$Comp
L power:GND #PWR0111
U 1 1 5E4B61A1
P 6400 4200
F 0 "#PWR0111" H 6400 3950 50  0001 C CNN
F 1 "GND" H 6405 4027 50  0000 C CNN
F 2 "" H 6400 4200 50  0001 C CNN
F 3 "" H 6400 4200 50  0001 C CNN
	1    6400 4200
	1    0    0    -1  
$EndComp
$Comp
L Connector_Generic:Conn_02x03_Odd_Even J1
U 1 1 5E482C16
P 5700 2250
F 0 "J1" H 5750 2567 50  0000 C CNN
F 1 "TPI" H 5750 2476 50  0000 C CNN
F 2 "Connector_PinHeader_2.54mm:PinHeader_2x03_P2.54mm_Vertical" H 5700 2250 50  0001 C CNN
F 3 "~" H 5700 2250 50  0001 C CNN
	1    5700 2250
	1    0    0    -1  
$EndComp
$Comp
L Jumper:Jumper_3_Bridged12 JP1
U 1 1 5E4B4D9C
P 6700 2900
F 0 "JP1" H 6700 3013 50  0000 C CNN
F 1 "Jumper_3_Bridged12" H 6700 3013 50  0001 C CNN
F 2 "Jumper:SolderJumper-3_P1.3mm_Bridged12_RoundedPad1.0x1.5mm" H 6700 2900 50  0001 C CNN
F 3 "~" H 6700 2900 50  0001 C CNN
	1    6700 2900
	1    0    0    -1  
$EndComp
Wire Wire Line
	6050 2900 6450 2900
Wire Wire Line
	6700 3050 6700 3300
Wire Wire Line
	7050 2900 6950 2900
NoConn ~ 6300 3500
$EndSCHEMATC
